{"country":"AU","date":"2012-10-01","ip_id":"1","package":"quadprog","r_arch":"i686","r_os":"linux-gnu","r_version":"2.15.1","size":"35165","time":"00:30:13","version":"1.5-4"}
{"country":"AU","date":"2012-10-01","ip_id":"1","package":"lavaan","r_arch":"i686","r_os":"linux-gnu","r_version":"2.15.1","size":"212967","time":"00:30:15","version":"0.5-9"}
{"country":"US","date":"2012-10-01","ip_id":"2","package":"formatR","r_arch":"x86_64","r_os":"linux-gnu","r_version":"2.15.1","size":"167199","time":"02:30:16","version":"0.6"}
{"country":"US","date":"2012-10-01","ip_id":"2","package":"stringr","r_arch":"x86_64","r_os":"linux-gnu","r_version":"2.15.1","size":"21164","time":"02:30:16","version":"0.6.1"}
{"country":"US","date":"2012-10-01","ip_id":"2","package":"evaluate","r_arch":"x86_64","r_os":"linux-gnu","r_version":"2.15.1","size":"11046","time":"02:30:13","version":"0.4.2"}
{"country":"US","date":"2012-10-01","ip_id":"2","package":"digest","r_arch":"x86_64","r_os":"linux-gnu","r_version":"2.15.1","size":"42294","time":"02:30:13","version":"0.5.2"}
{"country":"US","date":"2012-10-01","ip_id":"2","package":"knitr","r_arch":"x86_64","r_os":"linux-gnu","r_version":"2.15.1","size":"435407","time":"02:30:16","version":"0.8"}
{"country":"AU","date":"2012-10-01","ip_id":"1","package":"mice","r_arch":"i686","r_os":"linux-gnu","r_version":"2.15.1","size":"326143","time":"02:26:05","version":"2.13"}
{"country":"AU","date":"2012-10-01","ip_id":"1","package":"mitools","r_arch":"i686","r_os":"linux-gnu","r_version":"2.15.1","size":"119459","time":"02:21:09","version":"2.2"}
{"country":"US","date":"2012-10-01","ip_id":"3","package":"RCurl","r_arch":"x86_64","r_os":"linux-gnu","r_version":"2.15.0","size":"868695","time":"02:38:08","version":"1.95-0"}
{"country":"US","date":"2012-10-01","ip_id":"3","package":"bitops","r_arch":"x86_64","r_os":"linux-gnu","r_version":"2.15.0","size":"8954","time":"02:38:00","version":"1.0-4.1"}
{"country":"US","date":"2012-10-01","ip_id":"2","package":"plyr","r_arch":"x86_64","r_os":"linux-gnu","r_version":"2.15.1","size":"368192","time":"02:30:13","version":"1.7.1"}
{"country":"AU","date":"2012-10-01","ip_id":"1","package":"Amelia","r_arch":"i686","r_os":"linux-gnu","r_version":"2.15.1","size":"1061394","time":"02:13:48","version":"1.6.3"}
{"country":"US","date":"2012-10-01","ip_id":"3","package":"RCurl","r_arch":"x86_64","r_os":"linux-gnu","r_version":"2.15.0","size":"868687","time":"02:37:34","version":"1.95-0"}
{"country":"US","date":"2012-10-01","ip_id":"4","package":"NA","r_arch":"NA","r_os":"NA","r_version":"NA","size":"1023","time":"04:06:10","version":"NA"}
{"country":"US","date":"2012-10-01","ip_id":"2","package":"mosaic","r_arch":"x86_64","r_os":"linux-gnu","r_version":"2.15.1","size":"2094435","time":"08:17:26","version":"0.6-2"}
{"country":"US","date":"2012-10-01","ip_id":"2","package":"RCurl","r_arch":"x86_64","r_os":"linux-gnu","r_version":"2.15.1","size":"868687","time":"08:29:01","version":"1.95-0"}
{"country":"US","date":"2012-10-01","ip_id":"2","package":"mosaic","r_arch":"x86_64","r_os":"linux-gnu","r_version":"2.15.1","size":"2094449","time":"08:28:54","version":"0.6-2"}
{"country":"US","date":"2012-10-01","ip_id":"2","package":"bitops","r_arch":"x86_64","r_os":"linux-gnu","r_version":"2.15.1","size":"8954","time":"08:17:33","version":"1.0-4.1"}
{"country":"US","date":"2012-10-01","ip_id":"2","package":"RCurl","r_arch":"x86_64","r_os":"linux-gnu","r_version":"2.15.1","size":"868687","time":"08:17:34","version":"1.95-0"}
{"country":"US","date":"2012-10-01","ip_id":"2","package":"RCurl","r_arch":"x86_64","r_os":"linux-gnu","r_version":"2.15.1","size":"868701","time":"12:26:35","version":"1.95-0"}
{"country":"US","date":"2012-10-01","ip_id":"2","package":"mosaic","r_arch":"x86_64","r_os":"linux-gnu","r_version":"2.15.1","size":"2094435","time":"12:43:46","version":"0.6-2"}
{"country":"US","date":"2012-10-01","ip_id":"2","package":"RCurl","r_arch":"x86_64","r_os":"linux-gnu","r_version":"2.15.1","size":"868695","time":"12:44:58","version":"1.95-0"}
{"country":"US","date":"2012-10-01","ip_id":"2","package":"mosaic","r_arch":"x86_64","r_os":"linux-gnu","r_version":"2.15.1","size":"2094443","time":"12:44:51","version":"0.6-2"}
{"country":"US","date":"2012-10-01","ip_id":"2","package":"mosaic","r_arch":"x86_64","r_os":"linux-gnu","r_version":"2.15.1","size":"2094449","time":"12:59:07","version":"0.6-2"}
{"country":"US","date":"2012-10-01","ip_id":"2","package":"RCurl","r_arch":"x86_64","r_os":"linux-gnu","r_version":"2.15.1","size":"868695","time":"12:53:37","version":"1.95-0"}
{"country":"US","date":"2012-10-01","ip_id":"2","package":"mosaic","r_arch":"x86_64","r_os":"linux-gnu","r_version":"2.15.1","size":"2094435","time":"12:53:18","version":"0.6-2"}
{"country":"US","date":"2012-10-01","ip_id":"2","package":"mosaic","r_arch":"x86_64","r_os":"linux-gnu","r_version":"2.15.1","size":"2094443","time":"12:53:30","version":"0.6-2"}
{"country":"US","date":"2012-10-01","ip_id":"2","package":"mosaic","r_arch":"x86_64","r_os":"linux-gnu","r_version":"2.15.1","size":"2094443","time":"12:53:30","version":"0.6-2"}
{"country":"US","date":"2012-10-01","ip_id":"2","package":"RCurl","r_arch":"x86_64","r_os":"linux-gnu","r_version":"2.15.1","size":"868687","time":"12:53:25","version":"1.95-0"}
{"country":"US","date":"2012-10-01","ip_id":"2","package":"RCurl","r_arch":"x86_64","r_os":"linux-gnu","r_version":"2.15.1","size":"868696","time":"12:45:41","version":"1.95-0"}
{"country":"US","date":"2012-10-01","ip_id":"2","package":"RCurl","r_arch":"x86_64","r_os":"linux-gnu","r_version":"2.15.1","size":"868696","time":"12:41:21","version":"1.95-0"}
{"country":"US","date":"2012-10-01","ip_id":"2","package":"mosaic","r_arch":"x86_64","r_os":"linux-gnu","r_version":"2.15.1","size":"2094449","time":"12:26:29","version":"0.6-2"}
{"country":"US","date":"2012-10-01","ip_id":"2","package":"mosaic","r_arch":"x86_64","r_os":"linux-gnu","r_version":"2.15.1","size":"2094444","time":"12:41:15","version":"0.6-2"}
{"country":"US","date":"2012-10-01","ip_id":"2","package":"RCurl","r_arch":"x86_64","r_os":"linux-gnu","r_version":"2.15.1","size":"868695","time":"12:53:37","version":"1.95-0"}
{"country":"US","date":"2012-10-01","ip_id":"2","package":"mosaic","r_arch":"x86_64","r_os":"linux-gnu","r_version":"2.15.1","size":"2094444","time":"12:45:33","version":"0.6-2"}
{"country":"US","date":"2012-10-01","ip_id":"2","package":"RCurl","r_arch":"x86_64","r_os":"linux-gnu","r_version":"2.15.1","size":"868701","time":"12:59:15","version":"1.95-0"}
{"country":"US","date":"2012-10-01","ip_id":"2","package":"RCurl","r_arch":"x86_64","r_os":"linux-gnu","r_version":"2.15.1","size":"868687","time":"12:43:54","version":"1.95-0"}
{"country":"US","date":"2012-10-01","ip_id":"2","package":"RCurl","r_arch":"x86_64","r_os":"linux-gnu","r_version":"2.15.1","size":"868696","time":"13:12:51","version":"1.95-0"}
{"country":"US","date":"2012-10-01","ip_id":"2","package":"RCurl","r_arch":"x86_64","r_os":"linux-gnu","r_version":"2.15.1","size":"868701","time":"13:17:45","version":"1.95-0"}
{"country":"US","date":"2012-10-01","ip_id":"2","package":"mosaic","r_arch":"x86_64","r_os":"linux-gnu","r_version":"2.15.1","size":"2094444","time":"13:12:35","version":"0.6-2"}
{"country":"US","date":"2012-10-01","ip_id":"2","package":"RCurl","r_arch":"x86_64","r_os":"linux-gnu","r_version":"2.15.1","size":"868696","time":"13:12:43","version":"1.95-0"}
{"country":"US","date":"2012-10-01","ip_id":"2","package":"mosaic","r_arch":"x86_64","r_os":"linux-gnu","r_version":"2.15.1","size":"2094444","time":"13:12:44","version":"0.6-2"}
{"country":"US","date":"2012-10-01","ip_id":"2","package":"RCurl","r_arch":"x86_64","r_os":"linux-gnu","r_version":"2.15.1","size":"868696","time":"13:12:06","version":"1.95-0"}
{"country":"US","date":"2012-10-01","ip_id":"2","package":"mosaic","r_arch":"x86_64","r_os":"linux-gnu","r_version":"2.15.1","size":"2094444","time":"13:11:59","version":"0.6-2"}
{"country":"US","date":"2012-10-01","ip_id":"2","package":"mosaic","r_arch":"x86_64","r_os":"linux-gnu","r_version":"2.15.1","size":"2094449","time":"13:17:38","version":"0.6-2"}
{"country":"US","date":"2012-10-01","ip_id":"2","package":"RCurl","r_arch":"x86_64","r_os":"linux-gnu","r_version":"2.15.1","size":"868696","time":"13:02:16","version":"1.95-0"}
{"country":"US","date":"2012-10-01","ip_id":"2","package":"mosaic","r_arch":"x86_64","r_os":"linux-gnu","r_version":"2.15.1","size":"2094444","time":"13:02:08","version":"0.6-2"}
{"country":"US","date":"2012-10-01","ip_id":"2","package":"mosaic","r_arch":"x86_64","r_os":"linux-gnu","r_version":"2.15.1","size":"2094444","time":"14:34:53","version":"0.6-2"}
{"country":"US","date":"2012-10-01","ip_id":"2","package":"RCurl","r_arch":"x86_64","r_os":"linux-gnu","r_version":"2.15.1","size":"868701","time":"14:44:34","version":"1.95-0"}
{"country":"US","date":"2012-10-01","ip_id":"2","package":"mosaic","r_arch":"x86_64","r_os":"linux-gnu","r_version":"2.15.1","size":"2094449","time":"14:44:27","version":"0.6-2"}
{"country":"US","date":"2012-10-01","ip_id":"2","package":"mosaic","r_arch":"x86_64","r_os":"linux-gnu","r_version":"2.15.1","size":"2094444","time":"14:33:05","version":"0.6-2"}
{"country":"US","date":"2012-10-01","ip_id":"2","package":"RCurl","r_arch":"x86_64","r_os":"linux-gnu","r_version":"2.15.1","size":"868696","time":"14:33:14","version":"1.95-0"}
{"country":"US","date":"2012-10-01","ip_id":"2","package":"Hmisc","r_arch":"x86_64","r_os":"linux-gnu","r_version":"2.15.1","size":"574468","time":"14:28:50","version":"3.9-3"}
{"country":"US","date":"2012-10-01","ip_id":"2","package":"RCurl","r_arch":"x86_64","r_os":"linux-gnu","r_version":"2.15.1","size":"868701","time":"14:29:07","version":"1.95-0"}
{"country":"US","date":"2012-10-01","ip_id":"2","package":"RCurl","r_arch":"x86_64","r_os":"linux-gnu","r_version":"2.15.1","size":"868696","time":"14:35:34","version":"1.95-0"}
{"country":"US","date":"2012-10-01","ip_id":"2","package":"RCurl","r_arch":"x86_64","r_os":"darwin9.8.0","r_version":"2.15.1","size":"868701","time":"14:36:45","version":"1.95-0"}
{"country":"US","date":"2012-10-01","ip_id":"5","package":"quadprog","r_arch":"x86_64","r_os":"darwin9.8.0","r_version":"2.15.1","size":"83902","time":"14:55:02","version":"1.5-4"}
{"country":"US","date":"2012-10-01","ip_id":"5","package":"tseries","r_arch":"x86_64","r_os":"darwin9.8.0","r_version":"2.15.1","size":"348686","time":"14:55:03","version":"0.10-29"}
{"country":"US","date":"2012-10-01","ip_id":"5","package":"fracdiff","r_arch":"x86_64","r_os":"darwin9.8.0","r_version":"2.15.1","size":"170946","time":"14:55:03","version":"1.4-1"}
{"country":"US","date":"2012-10-01","ip_id":"5","package":"RcppArmadillo","r_arch":"x86_64","r_os":"darwin9.8.0","r_version":"2.15.1","size":"1474858","time":"14:55:06","version":"0.3.4.2"}
{"country":"US","date":"2012-10-01","ip_id":"5","package":"forecast","r_arch":"x86_64","r_os":"linux-gnu","r_version":"2.15.1","size":"1697731","time":"14:55:08","version":"3.25"}
{"country":"US","date":"2012-10-01","ip_id":"2","package":"RCurl","r_arch":"x86_64","r_os":"linux-gnu","r_version":"2.15.1","size":"868695","time":"14:30:16","version":"1.95-0"}
{"country":"US","date":"2012-10-01","ip_id":"2","package":"mosaic","r_arch":"x86_64","r_os":"linux-gnu","r_version":"2.15.1","size":"2094443","time":"14:30:08","version":"0.6-2"}
{"country":"US","date":"2012-10-01","ip_id":"2","package":"RCurl","r_arch":"x86_64","r_os":"linux-gnu","r_version":"2.15.1","size":"868695","time":"14:29:53","version":"1.95-0"}
{"country":"US","date":"2012-10-01","ip_id":"2","package":"RCurl","r_arch":"x86_64","r_os":"linux-gnu","r_version":"2.15.1","size":"868696","time":"14:35:20","version":"1.95-0"}
{"country":"US","date":"2012-10-01","ip_id":"2","package":"mosaic","r_arch":"x86_64","r_os":"linux-gnu","r_version":"2.15.1","size":"2094444","time":"14:35:04","version":"0.6-2"}
{"country":"US","date":"2012-10-01","ip_id":"2","package":"RCurl","r_arch":"x86_64","r_os":"linux-gnu","r_version":"2.15.1","size":"868696","time":"14:35:01","version":"1.95-0"}
{"country":"US","date":"2012-10-01","ip_id":"2","package":"mosaic","r_arch":"x86_64","r_os":"linux-gnu","r_version":"2.15.1","size":"2094444","time":"14:35:26","version":"0.6-2"}
{"country":"US","date":"2012-10-01","ip_id":"2","package":"mosaic","r_arch":"x86_64","r_os":"linux-gnu","r_version":"2.15.1","size":"2094444","time":"14:35:12","version":"0.6-2"}
{"country":"US","date":"2012-10-01","ip_id":"2","package":"RCurl","r_arch":"x86_64","r_os":"linux-gnu","r_version":"2.15.1","size":"868696","time":"14:35:11","version":"1.95-0"}
{"country":"US","date":"2012-10-01","ip_id":"2","package":"mosaic","r_arch":"x86_64","r_os":"linux-gnu","r_version":"2.15.1","size":"2094449","time":"14:36:38","version":"0.6-2"}
{"country":"US","date":"2012-10-01","ip_id":"2","package":"mosaic","r_arch":"x86_64","r_os":"linux-gnu","r_version":"2.15.1","size":"2094449","time":"14:27:57","version":"0.6-2"}
{"country":"US","date":"2012-10-01","ip_id":"2","package":"RCurl","r_arch":"x86_64","r_os":"linux-gnu","r_version":"2.15.1","size":"868701","time":"14:28:03","version":"1.95-0"}
{"country":"US","date":"2012-10-01","ip_id":"2","package":"mosaic","r_arch":"x86_64","r_os":"linux-gnu","r_version":"2.15.1","size":"2094443","time":"14:28:50","version":"0.6-2"}
{"country":"US","date":"2012-10-01","ip_id":"2","package":"RCurl","r_arch":"x86_64","r_os":"linux-gnu","r_version":"2.15.1","size":"868696","time":"14:32:43","version":"1.95-0"}
{"country":"US","date":"2012-10-01","ip_id":"2","package":"mosaic","r_arch":"x86_64","r_os":"linux-gnu","r_version":"2.15.1","size":"2094444","time":"14:32:35","version":"0.6-2"}
{"country":"US","date":"2012-10-01","ip_id":"2","package":"bitops","r_arch":"x86_64","r_os":"linux-gnu","r_version":"2.15.1","size":"8954","time":"14:29:06","version":"1.0-4.1"}
{"country":"US","date":"2012-10-01","ip_id":"2","package":"mosaic","r_arch":"x86_64","r_os":"linux-gnu","r_version":"2.15.1","size":"2094449","time":"14:29:46","version":"0.6-2"}
{"country":"US","date":"2012-10-01","ip_id":"2","package":"bitops","r_arch":"x86_64","r_os":"linux-gnu","r_version":"2.15.1","size":"8968","time":"14:44:34","version":"1.0-4.1"}
{"country":"US","date":"2012-10-01","ip_id":"2","package":"Rcpp","r_arch":"x86_64","r_os":"linux-gnu","r_version":"2.15.1","size":"2119957","time":"15:51:14","version":"0.9.14"}
{"country":"US","date":"2012-10-01","ip_id":"2","package":"mosaic","r_arch":"x86_64","r_os":"linux-gnu","r_version":"2.15.1","size":"2094449","time":"15:13:00","version":"0.6-2"}
{"country":"US","date":"2012-10-01","ip_id":"2","package":"RCurl","r_arch":"x86_64","r_os":"linux-gnu","r_version":"2.15.1","size":"868701","time":"15:13:07","version":"1.95-0"}
{"country":"US","date":"2012-10-01","ip_id":"6","package":"RSQLite","r_arch":"x86_64","r_os":"linux-gnu","r_version":"2.15.1","size":"1557500","time":"16:20:47","version":"0.11.2"}
{"country":"US","date":"2012-10-01","ip_id":"2","package":"mosaic","r_arch":"x86_64","r_os":"linux-gnu","r_version":"2.15.1","size":"2094444","time":"16:13:08","version":"0.6-2"}
{"country":"US","date":"2012-10-01","ip_id":"2","package":"RCurl","r_arch":"x86_64","r_os":"linux-gnu","r_version":"2.15.1","size":"868696","time":"16:13:15","version":"1.95-0"}
{"country":"US","date":"2012-10-01","ip_id":"2","package":"mosaic","r_arch":"x86_64","r_os":"mingw32","r_version":"2.15.1","size":"2094449","time":"16:34:12","version":"0.6-2"}
{"country":"US","date":"2012-10-01","ip_id":"7","package":"scales","r_arch":"x86_64","r_os":"linux-gnu","r_version":"2.15.1","size":"170085","time":"16:10:51","version":"0.2.2"}
{"country":"US","date":"2012-10-01","ip_id":"2","package":"mosaic","r_arch":"x86_64","r_os":"linux-gnu","r_version":"2.15.1","size":"2094444","time":"16:16:30","version":"0.6-2"}
{"country":"US","date":"2012-10-01","ip_id":"2","package":"mosaic","r_arch":"x86_64","r_os":"linux-gnu","r_version":"2.15.1","size":"2094449","time":"16:25:16","version":"0.6-2"}
{"country":"US","date":"2012-10-01","ip_id":"2","package":"mosaic","r_arch":"x86_64","r_os":"linux-gnu","r_version":"2.15.1","size":"2094444","time":"16:38:49","version":"0.6-2"}
{"country":"US","date":"2012-10-01","ip_id":"2","package":"RCurl","r_arch":"x86_64","r_os":"linux-gnu","r_version":"2.15.1","size":"868696","time":"16:38:55","version":"1.95-0"}
{"country":"US","date":"2012-10-01","ip_id":"2","package":"RCurl","r_arch":"x86_64","r_os":"linux-gnu","r_version":"2.15.1","size":"868695","time":"16:07:13","version":"1.95-0"}
{"country":"US","date":"2012-10-01","ip_id":"2","package":"RCurl","r_arch":"x86_64","r_os":"linux-gnu","r_version":"2.15.1","size":"868695","time":"16:07:28","version":"1.95-0"}
{"country":"US","date":"2012-10-01","ip_id":"2","package":"mosaic","r_arch":"x86_64","r_os":"linux-gnu","r_version":"2.15.1","size":"2094443","time":"16:07:21","version":"0.6-2"}
{"country":"US","date":"2012-10-01","ip_id":"2","package":"mosaic","r_arch":"x86_64","r_os":"linux-gnu","r_version":"2.15.1","size":"2094449","time":"16:07:05","version":"0.6-2"}
{"country":"US","date":"2012-10-01","ip_id":"2","package":"mosaic","r_arch":"x86_64","r_os":"linux-gnu","r_version":"2.15.1","size":"2094449","time":"16:59:59","version":"0.6-2"}
{"country":"US","date":"2012-10-01","ip_id":"7","package":"scales","r_arch":"NA","r_os":"NA","r_version":"NA","size":"170075","time":"16:16:12","version":"0.2.2"}
{"country":"US","date":"2012-10-01","ip_id":"2","package":"RCurl","r_arch":"x86_64","r_os":"linux-gnu","r_version":"2.15.1","size":"868701","time":"16:00:56","version":"1.95-0"}
{"country":"US","date":"2012-10-01","ip_id":"2","package":"RCurl","r_arch":"x86_64","r_os":"linux-gnu","r_version":"2.15.1","size":"868695","time":"16:01:08","version":"1.95-0"}
{"country":"US","date":"2012-10-01","ip_id":"2","package":"RCurl","r_arch":"x86_64","r_os":"linux-gnu","r_version":"2.15.1","size":"868697","time":"16:45:29","version":"1.95-0"}
{"country":"US","date":"2012-10-01","ip_id":"2","package":"RCurl","r_arch":"x86_64","r_os":"linux-gnu","r_version":"2.15.1","size":"868696","time":"16:47:24","version":"1.95-0"}
{"country":"US","date":"2012-10-01","ip_id":"2","package":"mosaic","r_arch":"x86_64","r_os":"linux-gnu","r_version":"2.15.1","size":"2094444","time":"16:47:16","version":"0.6-2"}
{"country":"US","date":"2012-10-01","ip_id":"2","package":"RCurl","r_arch":"x86_64","r_os":"linux-gnu","r_version":"2.15.1","size":"868696","time":"16:16:37","version":"1.95-0"}
{"country":"US","date":"2012-10-01","ip_id":"2","package":"mosaic","r_arch":"x86_64","r_os":"linux-gnu","r_version":"2.15.1","size":"2094443","time":"16:01:01","version":"0.6-2"}
{"country":"US","date":"2012-10-01","ip_id":"2","package":"RCurl","r_arch":"x86_64","r_os":"linux-gnu","r_version":"2.15.1","size":"868695","time":"16:34:46","version":"1.95-0"}
{"country":"US","date":"2012-10-01","ip_id":"2","package":"RCurl","r_arch":"x86_64","r_os":"linux-gnu","r_version":"2.15.1","size":"868701","time":"16:34:18","version":"1.95-0"}
{"country":"US","date":"2012-10-01","ip_id":"2","package":"mosaic","r_arch":"x86_64","r_os":"linux-gnu","r_version":"2.15.1","size":"2094443","time":"16:34:39","version":"0.6-2"}
{"country":"US","date":"2012-10-01","ip_id":"2","package":"mosaic","r_arch":"x86_64","r_os":"linux-gnu","r_version":"2.15.1","size":"2094449","time":"16:18:03","version":"0.6-2"}
{"country":"US","date":"2012-10-01","ip_id":"2","package":"RCurl","r_arch":"x86_64","r_os":"mingw32","r_version":"2.15.1","size":"868701","time":"16:18:10","version":"1.95-0"}
{"country":"US","date":"2012-10-01","ip_id":"2","package":"mosaic","r_arch":"x86_64","r_os":"linux-gnu","r_version":"2.15.1","size":"2094449","time":"16:00:50","version":"0.6-2"}
{"country":"US","date":"2012-10-01","ip_id":"7","package":"scales","r_arch":"x86_64","r_os":"linux-gnu","r_version":"2.15.1","size":"170076","time":"16:05:27","version":"0.2.2"}
{"country":"US","date":"2012-10-01","ip_id":"2","package":"RCurl","r_arch":"x86_64","r_os":"linux-gnu","r_version":"2.15.1","size":"868697","time":"16:25:24","version":"1.95-0"}
{"country":"US","date":"2012-10-01","ip_id":"2","package":"bitops","r_arch":"x86_64","r_os":"linux-gnu","r_version":"2.15.1","size":"8968","time":"16:25:23","version":"1.0-4.1"}
{"country":"US","date":"2012-10-01","ip_id":"2","package":"mosaic","r_arch":"x86_64","r_os":"linux-gnu","r_version":"2.15.1","size":"2094449","time":"16:45:22","version":"0.6-2"}
{"country":"US","date":"2012-10-01","ip_id":"2","package":"mosaic","r_arch":"x86_64","r_os":"linux-gnu","r_version":"2.14.2","size":"2094444","time":"16:47:56","version":"0.6-2"}
{"country":"US","date":"2012-10-01","ip_id":"2","package":"RCurl","r_arch":"x86_64","r_os":"linux-gnu","r_version":"2.15.1","size":"868696","time":"16:48:04","version":"1.95-0"}
{"country":"US","date":"2012-10-01","ip_id":"2","package":"mosaic","r_arch":"x86_64","r_os":"linux-gnu","r_version":"2.15.1","size":"2094444","time":"17:43:19","version":"0.6-2"}
{"country":"US","date":"2012-10-01","ip_id":"2","package":"mosaic","r_arch":"x86_64","r_os":"linux-gnu","r_version":"2.15.1","size":"2094449","time":"17:36:17","version":"0.6-2"}
{"country":"US","date":"2012-10-01","ip_id":"2","package":"RCurl","r_arch":"x86_64","r_os":"linux-gnu","r_version":"2.15.1","size":"868695","time":"17:38:49","version":"1.95-0"}
{"country":"US","date":"2012-10-01","ip_id":"2","package":"bitops","r_arch":"x86_64","r_os":"linux-gnu","r_version":"2.15.1","size":"8954","time":"17:38:49","version":"1.0-4.1"}
{"country":"US","date":"2012-10-01","ip_id":"2","package":"RCurl","r_arch":"x86_64","r_os":"linux-gnu","r_version":"2.14.2","size":"868701","time":"17:38:43","version":"1.95-0"}
{"country":"US","date":"2012-10-01","ip_id":"2","package":"RCurl","r_arch":"x86_64","r_os":"linux-gnu","r_version":"2.15.1","size":"868701","time":"17:36:25","version":"1.95-0"}
{"country":"US","date":"2012-10-01","ip_id":"2","package":"mosaic","r_arch":"x86_64","r_os":"linux-gnu","r_version":"2.15.1","size":"2094444","time":"17:44:24","version":"0.6-2"}
{"country":"US","date":"2012-10-01","ip_id":"2","package":"mosaic","r_arch":"x86_64","r_os":"linux-gnu","r_version":"2.15.1","size":"2094443","time":"17:33:03","version":"0.6-2"}
{"country":"US","date":"2012-10-01","ip_id":"2","package":"RCurl","r_arch":"x86_64","r_os":"linux-gnu","r_version":"2.15.1","size":"868701","time":"17:37:45","version":"1.95-0"}
{"country":"US","date":"2012-10-01","ip_id":"2","package":"mosaic","r_arch":"x86_64","r_os":"linux-gnu","r_version":"2.15.1","size":"2094443","time":"17:38:36","version":"0.6-2"}
{"country":"US","date":"2012-10-01","ip_id":"2","package":"mosaic","r_arch":"x86_64","r_os":"linux-gnu","r_version":"2.15.1","size":"2094443","time":"17:38:14","version":"0.6-2"}
{"country":"US","date":"2012-10-01","ip_id":"2","package":"RCurl","r_arch":"x86_64","r_os":"linux-gnu","r_version":"2.15.1","size":"868696","time":"17:52:05","version":"1.95-0"}
{"country":"US","date":"2012-10-01","ip_id":"2","package":"mosaic","r_arch":"x86_64","r_os":"linux-gnu","r_version":"2.15.1","size":"2094449","time":"17:38:42","version":"0.6-2"}
{"country":"US","date":"2012-10-01","ip_id":"2","package":"mosaic","r_arch":"x86_64","r_os":"linux-gnu","r_version":"2.15.1","size":"2094449","time":"17:37:39","version":"0.6-2"}
{"country":"US","date":"2012-10-01","ip_id":"2","package":"mosaic","r_arch":"x86_64","r_os":"linux-gnu","r_version":"2.15.1","size":"2094443","time":"17:36:40","version":"0.6-2"}
{"country":"US","date":"2012-10-01","ip_id":"2","package":"Sleuth2","r_arch":"x86_64","r_os":"linux-gnu","r_version":"2.15.1","size":"619124","time":"17:36:47","version":"1.0-7"}
{"country":"US","date":"2012-10-01","ip_id":"2","package":"RCurl","r_arch":"x86_64","r_os":"linux-gnu","r_version":"2.14.2","size":"868701","time":"17:00:07","version":"1.95-0"}
{"country":"US","date":"2012-10-01","ip_id":"2","package":"Sleuth2","r_arch":"x86_64","r_os":"linux-gnu","r_version":"2.15.1","size":"619115","time":"17:34:09","version":"1.0-7"}
{"country":"US","date":"2012-10-01","ip_id":"2","package":"Sleuth2","r_arch":"x86_64","r_os":"linux-gnu","r_version":"2.15.1","size":"619115","time":"17:44:53","version":"1.0-7"}
{"country":"US","date":"2012-10-01","ip_id":"2","package":"mosaic","r_arch":"x86_64","r_os":"linux-gnu","r_version":"2.14.1","size":"2094444","time":"17:44:23","version":"0.6-2"}
{"country":"US","date":"2012-10-01","ip_id":"2","package":"RCurl","r_arch":"x86_64","r_os":"linux-gnu","r_version":"2.14.1","size":"868695","time":"17:38:21","version":"1.95-0"}
{"country":"US","date":"2012-10-01","ip_id":"2","package":"Hmisc","r_arch":"x86_64","r_os":"linux-gnu","r_version":"2.15.1","size":"574468","time":"17:32:32","version":"3.9-3"}
{"country":"US","date":"2012-10-01","ip_id":"2","package":"mosaic","r_arch":"x86_64","r_os":"linux-gnu","r_version":"2.15.1","size":"2094449","time":"17:32:32","version":"0.6-2"}
{"country":"US","date":"2012-10-01","ip_id":"2","package":"RCurl","r_arch":"x86_64","r_os":"linux-gnu","r_version":"2.14.1","size":"868701","time":"17:44:29","version":"1.95-0"}
{"country":"US","date":"2012-10-01","ip_id":"2","package":"mosaic","r_arch":"x86_64","r_os":"linux-gnu","r_version":"2.15.1","size":"2094444","time":"17:51:58","version":"0.6-2"}
{"country":"US","date":"2012-10-01","ip_id":"2","package":"Sleuth2","r_arch":"x86_64","r_os":"linux-gnu","r_version":"2.15.1","size":"619123","time":"17:34:55","version":"1.0-7"}
{"country":"US","date":"2012-10-01","ip_id":"2","package":"RCurl","r_arch":"x86_64","r_os":"linux-gnu","r_version":"2.14.2","size":"868696","time":"17:41:55","version":"1.95-0"}
{"country":"US","date":"2012-10-01","ip_id":"2","package":"mosaic","r_arch":"x86_64","r_os":"linux-gnu","r_version":"2.15.1","size":"2094444","time":"17:41:45","version":"0.6-2"}
{"country":"US","date":"2012-10-01","ip_id":"2","package":"Hmisc","r_arch":"x86_64","r_os":"linux-gnu","r_version":"2.15.1","size":"574463","time":"17:43:19","version":"3.9-3"}
{"country":"US","date":"2012-10-01","ip_id":"2","package":"mosaic","r_arch":"x86_64","r_os":"linux-gnu","r_version":"2.15.1","size":"2094444","time":"18:10:44","version":"0.6-2"}
{"country":"US","date":"2012-10-01","ip_id":"2","package":"mosaic","r_arch":"x86_64","r_os":"linux-gnu","r_version":"2.15.1","size":"2094449","time":"18:28:44","version":"0.6-2"}
{"country":"US","date":"2012-10-01","ip_id":"2","package":"mosaic","r_arch":"x86_64","r_os":"linux-gnu","r_version":"2.15.1","size":"2094449","time":"18:45:27","version":"0.6-2"}
{"country":"US","date":"2012-10-01","ip_id":"2","package":"RCurl","r_arch":"x86_64","r_os":"linux-gnu","r_version":"2.15.1","size":"868701","time":"18:28:51","version":"1.95-0"}
{"country":"US","date":"2012-10-01","ip_id":"2","package":"RCurl","r_arch":"x86_64","r_os":"linux-gnu","r_version":"2.15.1","size":"868695","time":"18:16:44","version":"1.95-0"}
{"country":"US","date":"2012-10-01","ip_id":"2","package":"RCurl","r_arch":"x86_64","r_os":"linux-gnu","r_version":"2.15.1","size":"868696","time":"18:10:51","version":"1.95-0"}
{"country":"US","date":"2012-10-01","ip_id":"2","package":"RCurl","r_arch":"x86_64","r_os":"linux-gnu","r_version":"2.15.1","size":"868701","time":"18:45:33","version":"1.95-0"}
{"country":"US","date":"2012-10-01","ip_id":"2","package":"RCurl","r_arch":"x86_64","r_os":"linux-gnu","r_version":"2.15.1","size":"868701","time":"18:00:24","version":"1.95-0"}
{"country":"US","date":"2012-10-01","ip_id":"2","package":"mosaic","r_arch":"x86_64","r_os":"linux-gnu","r_version":"2.15.1","size":"2094449","time":"18:00:18","version":"0.6-2"}
{"country":"US","date":"2012-10-01","ip_id":"2","package":"mosaic","r_arch":"x86_64","r_os":"linux-gnu","r_version":"2.15.1","size":"2094449","time":"18:16:37","version":"0.6-2"}
{"country":"US","date":"2012-10-01","ip_id":"6","package":"reshape","r_arch":"x86_64","r_os":"darwin9.8.0","r_version":"2.15.1","size":"39430","time":"21:06:52","version":"0.8.4"}
{"country":"US","date":"2012-10-01","ip_id":"6","package":"WriteXLS","r_arch":"i686","r_os":"linux-gnu","r_version":"2.15.1","size":"287828","time":"22:04:13","version":"2.1.1"}
{"country":"US","date":"2012-10-01","ip_id":"8","package":"devtools","r_arch":"i686","r_os":"linux-gnu","r_version":"2.15.1","size":"198806","time":"22:23:56","version":"0.8"}
